com/example/todoManagerApp/models/User.class
com/example/todoManagerApp/repository/TodoRepository.class
com/example/todoManagerApp/repository/UserRepository.class
com/example/todoManagerApp/models/Todo.class
com/example/todoManagerApp/controller/UserController.class
com/example/todoManagerApp/service/TodoService.class
com/example/todoManagerApp/TodoManagerAppApplication.class
com/example/todoManagerApp/controller/TodoController.class
com/example/todoManagerApp/exception/ResourceNotFoundException.class
com/example/todoManagerApp/service/UserService.class
